{
  "swagger": "2.0",
  "info": {
    "description": "Ini adalah dokumentasi api menggunakan swagger untuk challenge 8 Binar Academy",
    "version": "1.0.0",
    "title": "Challenge 8",
    "termsOfService": "http://swagger.io/terms/",
    "contact": {
      "email": "valde.ganov@gmail.com"
    },
    "license": {
      "name": "Apache 2.0",
      "url": "http://www.apache.org/licenses/LICENSE-2.0.html"
    }
  },
  "host": "localhost:5000",
  "basePath": "/api",
  "tags": [
    {
      "name": "Challenge 8",
      "description": "dokumentasi API"
    }
  ],
  "schemes": [
    "http"
  ],
  "paths": {
    "/players": {
      "get": {
        "tags": [
          "player"
        ],
        "summary": "index player",
        "description": "Melihat semua daftar player",
        "produces": [
          "application/json"
        ],
        "responses": {
          "200": {
            "description": "Sukses mendapatkan daftar player",
            "schema": {
              "type": "object",
              "items": {
                "type": "object",
                "properties": {
                  "result": {
                    "type": "integer",
                    "example": 1
                  },
                  "message": {
                    "type": "object",
                    "example": {
                      "id": 1,
                      "username": "valde",
                      "email": "valde.ganov@gmail.com",
                      "password": "cronosvalde"
                    }
                  }
                }
              }
            }
          },
          "500": {
            "description": "Error get player data",
            "schema": {
              "type": "object",
              "items": {
                "type": "object",
                "properties": {
                  "message": {
                    "type": "string",
                    "example": "Some error accurred while retrieving players"
                  }
                }
              }
            }
          }
        }
      }
    }
  }
}